[
	{
      "id": "char_0",
      "name": "Origin",
      "desc": "I am the origin",
      "region": "player-circle",
      "event_id": "none",
      "cost": "0"
    },
    {
      "id": "char_1",
      "name": "Purple",
      "desc": "What is your favorite color?",
      "region": "player-circle-one",
      "event_id": " CgkInbyiz7EOEAIQDg",
      "cost": "100"
    },
    {
      "id": "char_2",
      "name": "Harmony",
      "desc": "I am the most important in this life",
      "region": "player-circle-two",
      "event_id": "CgkInbyiz7EOEAIQDw",
      "cost": "200"
    },
    {
      "id": "char_3",
      "name": "Wise Circle",
      "desc": "What is more important than wisdom?",
      "region": "player-circle-three",
      "event_id": "CgkInbyiz7EOEAIQEA",
      "cost": "500"
    },
    {
      "id": "char_4",
      "name": "Injured",
      "desc": "It was awefull day. I am injured.",
      "region": "player-circle-four",
      "event_id": "CgkInbyiz7EOEAIQEQ",
      "cost": "750"
    },
    {
      "id": "char_5",
      "name": "Nerd",
      "desc": "Nerd? I prefer the term: more intelligent than you.",
      "region": "player-circle-five",
      "event_id": "CgkInbyiz7EOEAIQEg",
      "cost": "1000"
    },
    {
      "id": "char_6",
      "name": "LGBT",
      "desc": "I am too gayish today and no one is able to stop the free behaviour of my sexuality",
      "region": "player-circle-six",
      "event_id": "CgkInbyiz7EOEAIQEw ",
      "cost": "1500"
    },
    {
      "id": "char_7",
      "name": "Psycho cat",
      "desc": "This world looks like psycho",
      "region": "player-circle-seven",
      "event_id": "CgkInbyiz7EOEAIQFA",
      "cost": "1500"
    },
    {
      "id": "char_8",
      "name": "Sunflower",
      "desc": "Hey, what a sunny day",
      "region": "player-circle-eight",
      "event_id": "CgkInbyiz7EOEAIQFQ",
      "cost": "1500"
    }
]